{
   "customer":    {
      "id": "0060167023",
      "firstName": "ANGELICA DE LOS MILA",
      "secondName": "Maverik",
      "lastName": "CREDITO",
      "secondLastName": "POR CONVENIO",
      "identityDocument":       {
         "type": "1",
         "id": "77778057"
      }
   },
   "credits": [   {
      "id": "00057272",
      "companyId": "0050002368",
      "agreementName": "AUTOCRAFT",
      "disbursement":       {
         "currencyName": "SOLES",
         "insuranceDesgravamen": "0.0750",
         "tea": "29.8407",
         "tcea": "42.0653",
         "date": "14/08/2019",
         "amount": "1000.00",
         "capitalBalance": "1049.24",
         "paidCapitalAmount": "0.00"
      },
      "installment":       {
         "paid": "0",
         "pending": "2",
         "total": "2",
         "amount": "548.10",
         "dueDate": "17/12/2019",
         "nextDueDate": "17/11/2019"
      }
   }]
}