{
   "isCustomer": "N",
   "lastName": "RIVERA",
   "secondLastName": "TEJEDA",
   "firstName": "ACASIO MARCELO",
   "birthdate": "1970-03-19",
   "genderType": "M",
   "maritalStatusId": "U",
   "educationLevel": "3",
   "telephones": [],
   "emails": [],
   "address": [   {
      "address": "SECT 2 GR 10 MZ H LT 15",
      "department": "NO INFORMADO",
      "province": "NO INFORMADO",
      "district": "VILLA EL SALVADOR"
   }]
}